{
  "Version": "2012-10-17",
  "Statement": [
      {
          "Effect": "Allow",
          "Action": "logs:CreateLogGroup",
          "Resource": "arn:aws:logs:us-east-1:029126476216:*"
      },
      {
          "Effect": "Allow",
          "Action": [
              "logs:CreateLogStream",
              "logs:PutLogEvents"
          ],
          "Resource": [
              "arn:aws:logs:us-east-1:029126476216:log-group:/aws/lambda/ToucanRawProcessor-dr:*"
          ]
      }
  ]
}