[
    {
      "name": "abb-ocpp",
      "image": "${ecr-image}",
      "logConfiguration": {
                  "logDriver": "awslogs",
                  "options": {
                      "awslogs-region" : "us-west-1",
                      "awslogs-group" : "stream-to-log-fluentd",
                      "awslogs-stream-prefix" : "project"
                  }
            },
      "essential": true,
      "portMappings": [
        {
          "containerPort": 8080,
          "hostPort": 31332
        },
        {
          "containerPort": 8887,
          "hostPort": 31341
        }
      ],
      "environment": [
      {
        "name": "set.zero.when.charger.transaction.katg",
        "value": "true"
      },
      {
        "name": "set.zero.when.charger.transaction.init",
        "value": "false"
      },
      {
        "name": "seconds.after.send.setPowerMinimumToTheCharger.message",
        "value": "5"
      },
      {
        "name": "rancher.server",
        "value": "true"
      },
      {
        "name": "port",
        "value": "8887"
      },
      {
        "name": "ping.pong.is.enabled",
        "value": "true"
      },
      {
        "name": "ping.pong.interval.in.sec",
        "value": "60"
      },
      {
        "name": "ocpp.min.power.level.abb.charger.offer",
        "value": "0"
      },
      {
        "name": "hostname",
        "value": "127.0.0.1"
      },
      {
        "name": "Energy.Managment.Server",
        "value": "false"
      },
      {
        "name": "energy.manager.sqs",
        "value": "energymanagersqs"
      },
      {
        "name": "dev.server",
        "value": "false"
      },
      {
        "name": "database.username",
        "value": "admin"
      },
      {
        "name": "database.port",
        "value": "3306"
      },
      {
        "name": "database.hostname",
        "value": "${db-endpoint}/ocpp_txn"
      },
      {
        "name": "ChargePointVendorSupported",
        "value": "ABB"
      },
      {
        "name": "cacheChargerVendor",
        "value": "ABB"
      },
      {
        "name": "aws.sqs.region",
        "value": "us-east-1"
      },
      {
        "name": "aws.sqs.name",
        "value": "OCPP-MessageQueue"
      },
      {
        "name": "aws.sqs.charger.events.faults.new",
        "value": "charger-event-faults_aggregated"
      },
      {
        "name": "aws.sqs.charger.events.faults",
        "value": "charger-event-faults"
      },
      {
        "name": "aws.sqs.charger.events",
        "value": "charger-events"
      },
      {
        "name": "aws.access.key",
        "value": "AKIAJGSMIGRERITFMMJA"
      },
      {
        "name": "asset.management.server.update.asset.url",
        "value": "https://api.proterra.com/ams/v1/assets/updateChargerModelByOCPP"
      },
      {
        "name": "APPLICATION_NAME_OCPP",
        "value": "ABB-OCPP"
      },
      {
        "name": "APPLICATION_NAME",
        "value": "ABB-OCPP"
      },
      {
        "name": "ams.tenant.api",
        "value": "https://api.proterra.com/ams/v1/tenants"
      },
      {
        "name": "ams.login.username",
        "value": "api@proterra.com"
      },
      {
        "name": "ams.login.password",
        "value": "WLqy`=4F+*z!3pfu1"
      },
      {
        "name": "ams.login.api",
        "value": "https://api.proterra.com/ams/v1/cognitoLogin"
      },
      {
        "name": "database.password",
        "value": "Expdev123"
      },
      {
        "name": "aws.secret.key",
        "value": "og1tKbsJDjfFfWaHloNI2F3X+eLN0OfEvgPngY3U"
      }
      ],
      "memory": 3000,
      "cpu": 10
    }
  ]
  