[
    {
      "name": "mp",
      "image": "${ecr-image}",
      "logConfiguration": {
                  "logDriver": "awslogs",
                  "options": {
                      "awslogs-region" : "us-west-1",
                      "awslogs-group" : "stream-to-log-fluentd",
                      "awslogs-stream-prefix" : "project"
                  }
            },
      "essential": true,
      "portMappings": [
        {
          "containerPort": 8887,
          "hostPort": 31332
        }
      ],
      "environment": [
        {
          "name": "triggerCleanUpOldMessages",
          "value": "0 */3 * ? * *"
        },
        {
          "name": "TIME_TO_DELETED_OLD_MESSAGES_IN_MIN",
          "value": "3"
        },
        {
          "name": "RECACHE_INTERVAL_IN_MIN",
          "value": "1"
        },
        {
          "name": "PING-INTERVAL-IN-SEC",
          "value": "60"
        },
        {
          "name": "MAX_WAIT_TIME_FOR_SERVER_CONNECTION_IN_SEC",
          "value": "15"
        },
        {
          "name": "CONTROL_PANEL_URL",
          "value": "https://q6egx76sj6.execute-api.us-east-1.amazonaws.com/exp-qa/proterra/controlpanel/v1/"
        },
        {
          "name": "CONTROL_PANEL_API_KEY",
          "value": "KPSmbp48sD8lvaN5LhAU65AfZihQNBgV9q69LSVJ"
        }
      ],
      "memory": 1000,
      "cpu": 10
    }
  ]
  