[
    {
      "name": "datalake-qa",
      "image": "${ecr-image}",
      "logConfiguration": {
                  "logDriver": "awslogs",
                  "options": {
                      "awslogs-region" : "us-west-1",
                      "awslogs-group" : "stream-to-log-fluentd",
                      "awslogs-stream-prefix" : "project"
                  }
            },
      "essential": true,
      "portMappings": [
        {
          "containerPort": 8080,
          "hostPort": 31327
        }
      ],
      "environment": [
      {
        "name": "RBAC_VINS_API",
        "value": "${ams-url}/v1/tenants/%s/vins"
      },
      {
        "name": "RBAC_OCPPIDS_API",
        "value": "${ams-url}/v1/tenants/%s/ocppIds"
      },
      {
        "name": "RBAC_AMS_ASSET_DETAILS_API",
        "value": "${ams-url}v1/tenants/%s/vehicles/chargeControllers"
      },
      {
        "name": "INTERNAL_DATALAKE_URL",
        "value": "a497578fb200d11eb9d2f023d2113a77-1749519384.us-east-1.elb.amazonaws.com:8091"
      },
      {
        "name": "INTERNAL_DATALAKE_KEY",
        "value": "internalAccessOnly123!"
      },
      {
        "name": "ELASTIC_USERNAME",
        "value": "elastic"
      },
      {
        "name": "ELASTIC_PASSWORD",
        "value": "JxgV2ZWdoJ1OfJCvsIbqWqbi"
      },
      {
        "name": "AWS_REGION",
        "value": "us-east-1"
      },
      {
        "name": "AWS_SECRET_KEY",
        "value": "og1tKbsJDjfFfWaHloNI2F3X+eLN0OfEvgPngY3U"
      },
      {
        "name": "AWS_ACCESS_KEY",
        "value": "AKIAJGSMIGRERITFMMJA"
      },
      {
        "name": "ADMIN_KEY",
        "value": "kxb8TvXo3D5453Gq8UWY541BXrdnJfXwlgaADyo7"
      }
      ],
      "memory": 3000,
      "cpu": 10
    }
  ]
  