[
    {
      "name": "ingestor",
      "image": "${ecr-image}",
      "logConfiguration": {
                  "logDriver": "awslogs",
                  "options": {
                      "awslogs-region" : "us-west-1",
                      "awslogs-group" : "stream-to-log-fluentd",
                      "awslogs-stream-prefix" : "project"
                  }
            },
      "essential": true,
      "portMappings": [
        {
          "containerPort": 8080,
          "hostPort": 31329
        }
      ],
      "environment": [
      {
        "name": "THREAD_POOL_SIZE",
        "value": "4"
      },
      {
        "name": "SPRING_CACHE_TYPE",
        "value": "caffeine"
      },
      {
        "name": "SPRING_CACHE_CAFFEINE_SPEC",
        "value": "maximumSize=500,expireAfterAccess=300s"
      },
      {
        "name": "SPRING_CACHE_CACHE-NAMES",
        "value": "stateIndexList"
      },
      {
        "name": "SHADOW_INDEX_NAME",
        "value": "ocpp_charger_state_dev_v2g"
      },
      {
        "name": "QUEUE_NAME",
        "value": "v2g-exp-ocpp-messages.fifo"
      },
      {
        "name": "OUTPUT_QUEUE_NAME",
        "value": "v2g-from-dev-ingestor"
      },
      {
        "name": "ELASTIC_USERNAME",
        "value": ""
      },
      {
        "name": "ELASTIC_SCHEME",
        "value": "http"
      },
      {
        "name": "ELASTIC_PORT",
        "value": "9200"
      },
      {
        "name": "ELASTIC_PASSWORD",
        "value": ""
      },
      {
        "name": "ELASTIC_HOST",
        "value": "ec2-3-238-80-177.compute-1.amazonaws.com"
      },
      {
        "name": "AWS_SQS_REGION",
        "value": "us-east-1"
      },
      {
        "name": "AWS_SQS_ENDPOINT",
        "value": "https://sqs.us-east-1.amazonaws.com/"
      },
      {
        "name": "AWS_SECRET_KEY",
        "value": "+sWBVoZUzdPJIBXWov7rcVrRErS79caBTt3M+pmi"
      },
      {
        "name": "AWS_ACCESS_KEY",
        "value": "AKIAXFSI6SLT4PVLS6YP"
      },
      {
        "name": "MYSQL_URL",
        "value": "${db-endpoint}/exp_ams_dev"
      }
      ],
      "memory": 1000,
      "cpu": 10
    }
  ]
  