[
  {
    "name": "ccss-track",
    "image": "${ecr-image}",
    "logConfiguration": {
                "logDriver": "awslogs",
                "options": {
                    "awslogs-region" : "us-west-1",
                    "awslogs-group" : "stream-to-log-fluentd",
                    "awslogs-stream-prefix" : "project"
                }
          },
    "essential": true,
    "portMappings": [
      {
        "containerPort": 8080,
        "hostPort": 31323
      }
    ],
      "environment": [
        {
          "name": "MYSQL_URL",
          "value": "${db-endpoint}/exp_ccss_dev"
        },
        {
          "name": "MYSQL_USERNAME",
          "value": "admin"
        },
        {
          "name": "MYSQL_PASSWORD",
          "value": "Expdev123"
        },
        {
          "name": "DEFAULT_CONNECTION_POOL_SIZE",
          "value": "5"
        },
       {
          "name": "API_ACCESS_KEY",
          "value": "sK5TUPzY9A2y6RbRAoB1w1dxewar6ofw5K9M4Het"
        },
        {
          "name": "CHARGER_SHADOW_INDEX",
          "value": "ocpp_charger_state"
        },
        {
          "name": "AUDIT_DATA_INDEX",
          "value": "audit_data_exp_dev"
        },
        {
          "name": "AUDIT_INDEX",
          "value": "ecms_audit_exp_dev"
        }       
        ],
    "memory": 1000,
    "cpu": 10
  }
]
